{
	"name": "<%= _.slugify(appname) %>",
	"version": "0.0.0",
	"dependencies": {
		"bootstrap": "~2.3.2",
		"datajs": "~1.1.1",
		"jasmine-jquery": "1.7.0",
		"jquery": "~1.9.1",
		"jquery-mockjax": "1.5.3",
		"jquery-placeholder": "~2.0.7",
		"kendo-ui": "~2013.2.716",
		"lesshat": "~3.0.0",
		"mockJSON": "https://github.com/mennovanslooten/mockJSON.git",
		"portal-core": "git+https://bitbucket.org/zorg128/portal-core.git/",
		"qunit": "~1.14.0",
		"requirejs": "~2.1.9",
		"requirejs-text": "~2.0.10",
		"es5-shim": "~3.1.1"
	}
}