{
	"name": "<%= appname %>",
	"private": true,
	"description": "",
	"version": "0.0.1",
	"engines": {
		"node": ">= 0.8.0"
	},
	"scripts": {
		"test": "grunt qunit"
	},
	"author": {
		"name": "Author Name",
		"email": "email@domain.com",
		"url": "http://bower.io/"
	},
	"licenses": [
		{
			"type": "MIT",
			"url": "http://mit-license.org"
		}
	],
	"devDependencies": {
		"bower": "~1.3.3",
		"clean-css": "~2.1.8",
		"connect-livereload": "~0.4.0",
		"grunt": "~0.4.4",
		"grunt-autoprefixer": "~0.7.3",
		"grunt-complexity": "~0.1.6",
		"grunt-concurrent": "~0.5.0",
		"grunt-contrib-clean": "~0.5.0",
		"grunt-contrib-concat": "~0.4.0",
		"grunt-contrib-connect": "~0.7.1",
		"grunt-contrib-copy": "~0.5.0",
		"grunt-contrib-cssmin": "~0.9.0",
		"grunt-contrib-htmlmin": "~0.2.0",
		"grunt-contrib-imagemin": "~0.7.0",
		"grunt-contrib-jasmine": "~0.5.3",
		"grunt-contrib-jshint": "~0.10.0",
		"grunt-contrib-less": "~0.11.0",
		"grunt-contrib-qunit": "~0.4.0",
		"grunt-contrib-requirejs": "~0.4.4",
		"grunt-contrib-uglify": "~0.4.0",
		"grunt-contrib-watch": "~0.6.1",
		"grunt-kendo-lint": "~0.0.3",
		"grunt-notify": "~0.3.0",
		"grunt-open": "~0.2.3",
		"grunt-processhtml": "~0.3.3",
		"grunt-template-jasmine-requirejs": "~0.1.10",
		"grunt-usemin": "~2.1.1",
		"jshint-stylish": "~0.2.0",
		"karma": "~0.12.14",
		"karma-chrome-launcher": "~0.1.3",
		"karma-firefox-launcher": "~0.1.3",
		"karma-ie-launcher": "~0.1.5",
		"karma-jasmine": "~0.1.5",
		"karma-requirejs": "~0.2.1",
		"load-grunt-tasks": "~0.4.0",
		"lodash": "~2.4.1",
		"matchdep": "~0.3.0",
		"moment": "~2.6.0",
		"requirejs": "~2.1.11",
		"time-grunt": "~0.3.1"
	}
}
